Intro to R
…
---
## Data from R packages

- Loading a data

```r
#install.packages('ggplot2')
library('ggplot2')
data("economics")
economics
```

```
## # A tibble: 574 × 6
##          date   pce    pop psavert uempmed unemploy
##        <date> <dbl>  <int>   <dbl>   <dbl>    <int>
## 1  1967-07-01 507.4 198712    12.5     4.5     2944
## 2  1967-08-01 510.5 198911    12.5     4.7     2945
## 3  1967-09-01 516.3 199113    11.7     4.6     2958
## 4  1967-10-01 512.9 199311    12.5     4.9     3143
## 5  1967-11-01 518.1 199498    12.5     4.7     3066
## 6  1967-12-01 525.8 199657    12.1     4.8     3018
## 7  1968-01-01 531.5 199808    11.7     5.1     2878
## 8  1968-02-01 534.2 199920    12.2     4.5     3001
## 9  1968-03-01 544.9 200056    11.6     4.1     2877
## 10 1968-04-01 544.6 200208    12.2     4.6     2709
## # ... with 564 more rows
```
…
---
## Ramka danych (ang. *data-frame*) - indeksowanie
- W przypadku ramek danych operator *[]* wymaga podania dwóch argumentów - jednego dla wierszy (obserwacji) oraz jednego dla kolumn (zmiennych) - *[wiersze, kolumny]*

```r
gapminder[-(1:1650), 3]
```

```
## # A tibble: 54 × 1
##     year
##    <int>
## 1   1982
## 2   1987
## 3   1992
## 4   1997
## 5   2002
## 6   2007
## 7   1952
## 8   1957
## 9   1962
## 10  1967
## # ... with 44 more rows
```
…
```
## # A tibble: 2 × 6
##   country continent  year lifeExp        pop gdpPercap
##    <fctr>    <fctr> <int>   <dbl>      <int>     <dbl>
## 1   India      Asia  2002  62.879 1034172547  1746.769
## 2   India      Asia  2007  64.698 1110396331  2452.210
```

```r
subset(gapminder, pop>1000000000 | continent=='Oceania')
```

```
## # A tibble: 32 × 6
##      country continent  year lifeExp      pop gdpPercap
##       <fctr>    <fctr> <int>   <dbl>    <int>     <dbl>
## 1  Australia   Oceania  1952   69.12  8691212  10039.60
## 2  Australia   Oceania  1957   70.33  9712569  10949.65
## 3  Australia   Oceania  1962   70.93 10794968  12217.23
## 4  Australia   Oceania  1967   71.10 11872264  14526.12
## 5  Australia   Oceania  1972   71.93 13177000  16788.63
## 6  Australia   Oceania  1977   73.49 14074100  18334.20
## 7  Australia   Oceania  1982   74.74 15184200  19477.01
## 8  Australia   Oceania  1987   76.32 16257249  21888.89
## 9  Australia   Oceania  1992   77.56 17481977  23424.77
## 10 Australia   Oceania  1997   78.83 18565243  26997.94
## # ... with 22 more rows
```

---
## Ramka danych (ang. *data-frame*) - indeksowanie
- Podobnie jak w przypadku wektorów, z wyniku indeksowania ramki danych można stworzyć nowy obiekt i dalej na nim pracować

```r
afryka <- subset(gapminder, continent=='Africa')
afryka
```

```
## # A tibble: 624 × 6
##    country continent  year lifeExp      pop gdpPercap
##     <fctr>    <fctr> <int>   <dbl>    <int>     <dbl>
## 1  Algeria    Africa  1952  43.077  9279525  2449.008
## 2  Algeria    Africa  1957  45.685 10270856  3013.976
## 3  Algeria    Africa  1962  48.303 11000948  2550.817
## 4  Algeria    Africa  1967  51.407 12760499  3246.992
## 5  Algeria    Africa  1972  54.518 14760787  4182.664
## 6  Algeria    Africa  1977  58.014 17152804  4910.417
## 7  Algeria    Africa  1982  61.368 20033753  5745.160
## 8  Algeria    Africa  1987  65.799 23254956  5681.359
## 9  Algeria    Africa  1992  67.744 26298373  5023.217
## 10 Algeria    Africa  1997  69.152 29072015  4797.295
## # ... with 614 more rows
```

---
## Ramka danych (ang. *data-frame*) - indeksowanie
- Podobnie jak w przypadku wektorów, z wyniku indeksowania ramki danych można stworzyć nowy obiekt i dalej na nim pracować

```r
rok2007 <- gapminder[gapminder$year==2007, ]
rok2007
```

```
## # A tibble: 142 × 6
##        country continent  year lifeExp       pop  gdpPercap
##         <fctr>    <fctr> <int>   <dbl>     <int>      <dbl>
## 1  Afghanistan      Asia  2007  43.828  31889923   974.5803
## 2      Albania    Europe  2007  76.423   3600523  5937.0295
## 3      Algeria    Africa  2007  72.301  33333216  6223.3675
## 4       Angola    Africa  2007  42.731  12420476  4797.2313
## 5    Argentina  Americas  2007  75.320  40301927 12779.3796
## 6    Australia   Oceania  2007  81.235  20434176 34435.3674
## 7      Austria    Europe  2007  79.829   8199783 36126.4927
## 8      Bahrain      Asia  2007  75.635    708573 29796.0483
## 9   Bangladesh      Asia  2007  64.062 150448339  1391.2538
## 10     Belgium    Europe  2007  79.441  10392226 33692.6051
## # ... with 132 more rows
```
…
